[
  { "playername": "Just FONTAINE", "probability": "100.00" },
  { "playername": "LEONIDAS", "probability": "83.33" },
  { "playername": "Salvatore SCHILLACI", "probability": "71.43" },
  { "playername": "Gerd MUELLER", "probability": "69.23" },
  { "playername": "ZARRA", "probability": "66.67" },
  { "playername": "Gyorgy SAROSI", "probability": "66.67" },
  { "playername": "ADEMIR", "probability": "66.67" },
  { "playername": "Max MORLOCK", "probability": "66.67" },
  { "playername": "Helmut RAHN", "probability": "66.67" },
  { "playername": "Oldrich NEJEDLY", "probability": "57.14" }
]
